Tutorial • maldonadopackage
…
That’s great and all, but how do we use this? Now that the dates are formatted in this way, we can manipulate these data to observe trends.

Function 2 - Calculating biomass for each life stage of each species in the dataset

agp_biomass <- biomass(agp_parsed, Species, Stage, Year, Mass)
agp_biomass

## # A tibble: 47 x 4
## # Groups:   Species, Stage [9]
##    Species            Stage               Year Biomass
##    <chr>              <chr>              <dbl>   <dbl>
##  1 Boreal Chorus Frog Not Tadpole/Larvae  2005    12.5
##  2 Boreal Chorus Frog Not Tadpole/Larvae  2006    98.4
##  3 Boreal Chorus Frog Not Tadpole/Larvae  2007   394. 
##  4 Boreal Chorus Frog Not Tadpole/Larvae  2008   346  
##  5 Boreal Chorus Frog Not Tadpole/Larvae  2009    18  
##  6 Boreal Chorus Frog Not Tadpole/Larvae  2010    86  
##  7 Boreal Chorus Frog Not Tadpole/Larvae  2011     2.9
##  8 Boreal Chorus Frog Tadpole/Larvae      2010     0  
##  9 Great Plains Toad  Not Tadpole/Larvae  2005    54.7
## 10 Great Plains Toad  Not Tadpole/Larvae  2006   106. 
## # ... with 37 more rows
…
